%YAML 1.1
%TAG !u! tag:unity3d.com,2011:
--- !u!1 &171534
GameObject:
  m_ObjectHideFlags: 0
  m_PrefabParentObject: {fileID: 0}
  m_PrefabInternal: {fileID: 100100000}
  serializedVersion: 4
  m_Component:
  - 4: {fileID: 496564}
  - 114: {fileID: 11412458}
  m_Layer: 0
  m_Name: EnemyWeapon
  m_TagString: Untagged
  m_Icon: {fileID: 0}
  m_NavMeshLayer: 0
  m_StaticEditorFlags: 0
  m_IsActive: 1
--- !u!4 &496564
Transform:
  m_ObjectHideFlags: 1
  m_PrefabParentObject: {fileID: 0}
  m_PrefabInternal: {fileID: 100100000}
  m_GameObject: {fileID: 171534}
  m_LocalRotation: {x: 0.025864173, y: 0.965656, z: 0.1058971, w: -0.23585056}
  m_LocalPosition: {x: 0, y: 0, z: 0}
  m_LocalScale: {x: 1, y: 1, z: 1}
  m_LocalEulerAnglesHint: {x: -1.7816999, y: -130.1161, z: 0}
  m_Children: []
  m_Father: {fileID: 0}
  m_RootOrder: 0
--- !u!114 &11412458
MonoBehaviour:
  m_ObjectHideFlags: 1
  m_PrefabParentObject: {fileID: 0}
  m_PrefabInternal: {fileID: 100100000}
  m_GameObject: {fileID: 171534}
  m_Enabled: 1
  m_EditorHideFlags: 0
  m_Script: {fileID: 11500000, guid: dc0c81a870f4d404ba1813a63d853cb2, type: 3}
  m_Name: 
  m_EditorClassIdentifier: 
  WhoHasThisWeapon: {fileID: 0}
  ProjectilePrefab: {fileID: 154472, guid: 3575307d1984c404dafe8219ea763d8e, type: 2}
  ProjectilesPerSecond: 0.5
--- !u!1001 &100100000
Prefab:
  m_ObjectHideFlags: 1
  serializedVersion: 2
  m_Modification:
    m_TransformParent: {fileID: 0}
    m_Modifications: []
    m_RemovedComponents: []
  m_ParentPrefab: {fileID: 0}
  m_RootGameObject: {fileID: 171534}
  m_IsPrefabParent: 1
